<svg width="55" height="44" viewBox="0 0 55 44" fill="none" xmlns="http://www.w3.org/2000/svg">
<path d="M4 12.48C4 11.1103 5.23122 10 6.75 10H15V41H4V12.48Z" fill="#165BB8"/>
<path d="M51 12.48C51 11.1103 49.7688 10 48.25 10H40V41H51V12.48Z" fill="#165BB8"/>
<path d="M11 19.5555H7.33331C6.65829 19.5555 6.11108 20.1027 6.11108 20.7778V24.4444C6.11108 25.1194 6.65829 25.6667 7.33331 25.6667H11C11.675 25.6667 12.2222 25.1194 12.2222 24.4444V20.7778C12.2222 20.1027 11.675 19.5555 11 19.5555Z" fill="#56CCF2"/>
<path d="M44 19.5555H47.6667C48.3417 19.5555 48.8889 20.1027 48.8889 20.7778V24.4444C48.8889 25.1194 48.3417 25.6667 47.6667 25.6667H44C43.325 25.6667 42.7778 25.1194 42.7778 24.4444V20.7778C42.7778 20.1027 43.325 19.5555 44 19.5555Z" fill="#56CCF2"/>
<path d="M11 12.2222H7.33331C6.65829 12.2222 6.11108 12.7694 6.11108 13.4444V17.1111C6.11108 17.7861 6.65829 18.3333 7.33331 18.3333H11C11.675 18.3333 12.2222 17.7861 12.2222 17.1111V13.4444C12.2222 12.7694 11.675 12.2222 11 12.2222Z" fill="#56CCF2"/>
<path d="M44 12.2222H47.6667C48.3417 12.2222 48.8889 12.7694 48.8889 13.4444V17.1111C48.8889 17.7861 48.3417 18.3333 47.6667 18.3333H44C43.325 18.3333 42.7778 17.7861 42.7778 17.1111V13.4444C42.7778 12.7694 43.325 12.2222 44 12.2222Z" fill="#56CCF2"/>
<path d="M40.3333 0H14.6666V40.3333H40.3333V0Z" fill="#2F80ED"/>
<path d="M40.3333 0H14.6667C13.9917 0 13.4445 0.547207 13.4445 1.22222C13.4445 1.89724 13.9917 2.44444 14.6667 2.44444H40.3333C41.0084 2.44444 41.5556 1.89724 41.5556 1.22222C41.5556 0.547207 41.0084 0 40.3333 0Z" fill="#F2994A"/>
<path d="M26.8889 29.3334H20.7778V40.3334H26.8889V29.3334Z" fill="#56CCF2"/>
<path d="M34.2222 29.3334H28.1111V40.3334H34.2222V29.3334Z" fill="#56CCF2"/>
<path d="M36.6667 26.8889H18.3334V29.3334H36.6667V26.8889Z" fill="#F2994A"/>
<path d="M22 18.3334H18.3333C17.6583 18.3334 17.1111 18.8806 17.1111 19.5556V23.2223C17.1111 23.8973 17.6583 24.4445 18.3333 24.4445H22C22.675 24.4445 23.2222 23.8973 23.2222 23.2223V19.5556C23.2222 18.8806 22.675 18.3334 22 18.3334Z" fill="#56CCF2"/>
<path d="M29.3333 18.3334H25.6667C24.9917 18.3334 24.4445 18.8806 24.4445 19.5556V23.2223C24.4445 23.8973 24.9917 24.4445 25.6667 24.4445H29.3333C30.0084 24.4445 30.5556 23.8973 30.5556 23.2223V19.5556C30.5556 18.8806 30.0084 18.3334 29.3333 18.3334Z" fill="#56CCF2"/>
<path d="M36.6667 18.3334H33.0001C32.325 18.3334 31.7778 18.8806 31.7778 19.5556V23.2223C31.7778 23.8973 32.325 24.4445 33.0001 24.4445H36.6667C37.3417 24.4445 37.8889 23.8973 37.8889 23.2223V19.5556C37.8889 18.8806 37.3417 18.3334 36.6667 18.3334Z" fill="#56CCF2"/>
<path d="M22 11H18.3333C17.6583 11 17.1111 11.5472 17.1111 12.2222V15.8889C17.1111 16.5639 17.6583 17.1111 18.3333 17.1111H22C22.675 17.1111 23.2222 16.5639 23.2222 15.8889V12.2222C23.2222 11.5472 22.675 11 22 11Z" fill="#56CCF2"/>
<path d="M29.3333 11H25.6667C24.9917 11 24.4445 11.5472 24.4445 12.2222V15.8889C24.4445 16.5639 24.9917 17.1111 25.6667 17.1111H29.3333C30.0084 17.1111 30.5556 16.5639 30.5556 15.8889V12.2222C30.5556 11.5472 30.0084 11 29.3333 11Z" fill="#56CCF2"/>
<path d="M36.6667 11H33.0001C32.325 11 31.7778 11.5472 31.7778 12.2222V15.8889C31.7778 16.5639 32.325 17.1111 33.0001 17.1111H36.6667C37.3417 17.1111 37.8889 16.5639 37.8889 15.8889V12.2222C37.8889 11.5472 37.3417 11 36.6667 11Z" fill="#56CCF2"/>
<path d="M22 3.66663H18.3333C17.6583 3.66663 17.1111 4.21383 17.1111 4.88885V8.55551C17.1111 9.23053 17.6583 9.77774 18.3333 9.77774H22C22.675 9.77774 23.2222 9.23053 23.2222 8.55551V4.88885C23.2222 4.21383 22.675 3.66663 22 3.66663Z" fill="#56CCF2"/>
<path d="M29.3333 3.66663H25.6667C24.9917 3.66663 24.4445 4.21383 24.4445 4.88885V8.55551C24.4445 9.23053 24.9917 9.77774 25.6667 9.77774H29.3333C30.0084 9.77774 30.5556 9.23053 30.5556 8.55551V4.88885C30.5556 4.21383 30.0084 3.66663 29.3333 3.66663Z" fill="#56CCF2"/>
<path d="M36.6667 3.66663H33.0001C32.325 3.66663 31.7778 4.21383 31.7778 4.88885V8.55551C31.7778 9.23053 32.325 9.77774 33.0001 9.77774H36.6667C37.3417 9.77774 37.8889 9.23053 37.8889 8.55551V4.88885C37.8889 4.21383 37.3417 3.66663 36.6667 3.66663Z" fill="#56CCF2"/>
<path d="M0 44C0 41.9749 1.64163 40.3334 3.66667 40.3334H51.3333C53.3584 40.3334 55 41.9749 55 44H0Z" fill="#F2994A"/>
</svg>
