<svg width="37" height="46" viewBox="0 0 37 46" fill="none" xmlns="http://www.w3.org/2000/svg">
<ellipse cx="25.2743" cy="22.9517" rx="11.2743" ry="11.9006" fill="#F2994A"/>
<path fill-rule="evenodd" clip-rule="evenodd" d="M23.8426 1.64952C22.7798 0.59335 21.3383 0 19.8353 0H5.66723C4.16419 0 2.7227 0.59335 1.65989 1.64952C0.597081 2.70569 0 4.13816 0 5.63181V39.4227C0 40.9163 0.597081 42.3488 1.65989 43.4049C2.7227 44.4611 4.16419 45.0545 5.66723 45.0545H19.8353C21.3383 45.0545 22.7798 44.4611 23.8426 43.4049C24.9054 42.3488 25.5025 40.9163 25.5025 39.4227V37.4037C24.5308 37.4037 23.5829 37.2954 22.6689 37.0896V39.4227C22.6689 40.1695 22.3704 40.8857 21.839 41.4138C21.3076 41.9419 20.5868 42.2386 19.8353 42.2386H5.66723C4.91571 42.2386 4.19497 41.9419 3.66356 41.4138C3.13216 40.8857 2.83361 40.1695 2.83361 39.4227V5.63181C2.83361 4.88498 3.13216 4.16875 3.66356 3.64066C4.19497 3.11258 4.91571 2.8159 5.66723 2.8159H6.67228C6.80929 2.81541 6.94346 2.8547 7.0583 2.92896C7.17314 3.00322 7.26365 3.10921 7.31869 3.23389C7.5387 3.73718 7.90189 4.16562 8.36361 4.46656C8.82533 4.7675 9.36547 4.92783 9.91765 4.92783H15.5849C16.1371 4.92783 16.6772 4.7675 17.1389 4.46656C17.6006 4.16562 17.9638 3.73718 18.1838 3.23389C18.2389 3.10921 18.3294 3.00322 18.4442 2.92896C18.5591 2.8547 18.6932 2.81541 18.8303 2.8159H19.8353C20.5868 2.8159 21.3076 3.11258 21.839 3.64066C22.3704 4.16875 22.6689 4.88498 22.6689 5.63181V8.81492C23.5829 8.60911 24.5308 8.50084 25.5025 8.50084V5.63181C25.5025 4.13816 24.9054 2.70569 23.8426 1.64952ZM21.2521 9.2205V5.63181C21.2521 5.2584 21.1028 4.90028 20.8371 4.63624C20.5714 4.37219 20.2111 4.22386 19.8353 4.22386C19.6721 4.22286 19.5108 4.25964 19.3644 4.33127C19.2179 4.4029 19.0902 4.50742 18.9914 4.63656C18.5959 5.16376 18.082 5.59191 17.4906 5.88691C16.8992 6.18191 16.2466 6.33562 15.5849 6.33578H9.91765C9.25592 6.33562 8.60337 6.18191 8.01197 5.88691C7.42056 5.59191 6.90663 5.16376 6.51111 4.63656C6.41232 4.50742 6.28464 4.4029 6.13817 4.33127C5.9917 4.25964 5.83047 4.22286 5.66723 4.22386C5.29147 4.22386 4.9311 4.37219 4.66539 4.63624C4.39969 4.90028 4.25042 5.2584 4.25042 5.63181V39.4227C4.25042 39.7961 4.39969 40.1542 4.66539 40.4182C4.9311 40.6823 5.29147 40.8306 5.66723 40.8306H19.8353C20.2111 40.8306 20.5714 40.6823 20.8371 40.4182C21.1028 40.1542 21.2521 39.7961 21.2521 39.4227V36.684C15.8219 34.7876 11.9012 29.3564 11.9012 22.9523C11.9012 16.5481 15.8219 11.1169 21.2521 9.2205Z" fill="#2F80ED"/>
<path d="M30.6678 19.454C30.9752 19.454 31.2561 19.6283 31.3932 19.903L32.1389 21.3992C32.4074 21.9382 32.0155 22.5712 31.4134 22.5712L19.1406 22.5712C18.4192 22.5712 18.0573 21.6999 18.5666 21.1885L22.5355 17.2065C23.0457 16.6946 23.9201 17.0559 23.9201 17.7787L23.9201 18.6435C23.9201 19.0909 24.2829 19.454 24.7306 19.454L30.6678 19.454Z" fill="white"/>
<path d="M19.2437 28.3905C18.9363 28.3905 18.6554 28.2162 18.5183 27.9414L17.7727 26.4453C17.5041 25.9063 17.896 25.2733 18.4981 25.2733L30.7709 25.2733C31.4923 25.2733 31.8542 26.1446 31.3449 26.656L27.376 30.6379C26.8658 31.1502 25.9914 30.7887 25.9914 30.0657L25.9914 29.2009C25.9914 28.7536 25.6285 28.3905 25.1809 28.3905L19.2437 28.3905Z" fill="white"/>
</svg>
