{
  "project_info": {
    "project_number": "974935731868",
    "firebase_url": "https://madupay-1dcf8-default-rtdb.asia-southeast1.firebasedatabase.app",
    "project_id": "madupay-1dcf8",
    "storage_bucket": "madupay-1dcf8.appspot.com"
  },
  "client": [
    {
      "client_info": {
        "mobilesdk_app_id": "1:974935731868:android:97d2e377e1b2e262f38759",
        "android_client_info": {
          "package_name": "ppob.ktm2.starter"
        }
      },
      "oauth_client": [
        {
          "client_id": "104171335357469477909",
          "client_type": 3
        }
      ],
      "api_key": [
        {
          "current_key": "AIzaSyCjlsZ49gQzo8jCUMFqU21UWiP-74Qq8Xc"
        }
      ],
      "services": {
        "appinvite_service": {
          "other_platform_oauth_client": [
            {
              "client_id": "104171335357469477909",
              "client_type": 3
            }
          ]
        }
      }
    },
    {
      "client_info": {
        "mobilesdk_app_id": "1:974935731868:android:2086d3cbb17e8c82f38759",
        "android_client_info": {
          "package_name": "web.kilatppob.starter"
        }
      },
      "oauth_client": [
        {
          "client_id": "104171335357469477909",
          "client_type": 3
        }
      ],
      "api_key": [
        {
          "current_key": "AIzaSyCjlsZ49gQzo8jCUMFqU21UWiP-74Qq8Xc"
        }
      ],
      "services": {
        "appinvite_service": {
          "other_platform_oauth_client": [
            {
              "client_id": "104171335357469477909",
              "client_type": 3
            }
          ]
        }
      }
    },
    {
      "client_info": {
        "mobilesdk_app_id": "1:974935731868:android:c31d67a3b28a4069f38759",
        "android_client_info": {
          "package_name": "web.kilatppob2.starter"
        }
      },
      "oauth_client": [
        {
          "client_id": "104171335357469477909",
          "client_type": 3
        }
      ],
      "api_key": [
        {
          "current_key": "AIzaSyCjlsZ49gQzo8jCUMFqU21UWiP-74Qq8Xc"
        }
      ],
      "services": {
        "appinvite_service": {
          "other_platform_oauth_client": [
            {
              "client_id": "104171335357469477909",
              "client_type": 3
            }
          ]
        }
      }
    }
  ],
  "configuration_version": "1"
}